sample-id	barcode-rev
#q2:types	categorical
PC1.30.9.3.17	ACGAGTGCGT
PC1.250.9.3.17	ACGCTCGACA
PC1.30.13.3.17	AGACGCACTC
PC1.250.13.3.17	AGCACTGTAG
PC1.30.20.3.17	ATCAGACACG
PC1.250.20.3.17	ATATCGCGAG
PC1.30.27.3.17	CGTGTCTCTA
PC1.250.27.3.17	CTCGCGTGTC
PC1.30.3.4.17	TAGTATCAGC
PC1.250.3.4.17	TCTCTATGCG
PC1.30.10.4.17	TGATACGTCT
PC1.250.10.4.17	TACTGAGCTA
PC1.30.18.4.17	CATAGTAGTG
PC1.250.18.4.17	CGAGAGATAC
PC1.30.2.5.17	ATACGACGTA
PC1.250.2.5.17	TCACGTACTA
PC1.30.10.5.17	CGTCTAGTAC
PC1.250.10.5.17	TCTACGTAGC
PC1.30.15.5.17	TGTACTACTC
PC1.250.15.5.17	ACGACTACAG
PC1.30.22.5.17	CGTAGACTAG
PC1.250.22.5.17	TACGAGTATG
PC1.30.1.6.17	TACTCTCGTG
PC1.250.1.6.17	TAGAGACGAG
PC1.30.8.6.17	TCGTCGCTCG
PC1.250.8.6.17	ACATACGCGT
PC1.30.14.6.17	ACGCGAGTAT
PC1.250.14.6.17	ACTACTATGT
PC1.30.20.6.17	ACTGTACAGT
PC1.250.20.6.17	AGACTATACT
PC1.30.27.6.17	AGCGTCGTCT
PC1.250.27.6.17	AGTACGCTAT
C2304717	ATAGAGTACT
C22504717	CACGCTACGT
C23011717	CAGTAGACGT
C225011717	CGACGTGACT
C23018717	TACACACACT
C225018717	TACACGTGAT
C23025717	TACAGATCGT
C225025717	TACGCTGTCT
C2307817	TAGTGTAGAT
C22507817	TCGATCACGT
C23029817	TCGCACTAGT
C225029817	TCTAGCGACT
C2305917	TCTATACTAT
C22505917	TGACGTATGT
C23013917	TGTGAGTAGT
C225013917	ACAGTATATA
C23019917	ACGCGATCGA
C225019917	ACTAGCAGTA
C23026917	AGCTCACGTA
C225026917	AGTATACATA
C23031017	AGTCGAGAGA
C225031017	AGTGCTACGA
C230101017	CGATCGTATA
C2250101017	CGCAGTACGA
C230171017	CGCGTATACA
C2250171017	CGTACAGTCA
C230311017	CGTACTCAGA
C2250311017	CTACGCTCTA
C23071117	CTATAGCGTA
C225071117	TACGTCATCA
C230151117	TAGTCGCATA
C2250151117	TATATATACA
C230211117	TATGCTAGTA
C2250211117	TCACGCGAGA
C230281117	TCGATAGTGA
C2250281117	TCGCTGCGTA
C23041217	TCTGACGTCA
C225041217	TGAGTCAGTA
C230131217	TGTAGTGTGA
C2250131217	TGTCACACGA
C230191217	TGTCGTCGCA
C2250191217	ACACATACGC
C2303118	ACAGTCGTGC
C22503118	ACATGACGAC
C23010118	ACGACAGCTC
C225010118	ACGTCTCATC
C23019118	ACTCATCTAC
C225019118	ACTCGCGCAC
C23023118	AGAGCGTCAC
C225023118	AGCGACTAGC
C23030118	AGTAGTGATC
C225030118	AGTGACACAC
C2307218	AGTGTATGTC
C22507218	ATAGATAGAC
C23013218	ATATAGTCGC
C225013218	ATCTACTGAC
C23019218	CACGTAGATC
C225019218	CACGTGTCGC
C23028218	CATACTCTAC
C225028218	CGACACTATC
C23014318	CGAGACGCGC
C225014318	CGTATGCGAC
C23022318	CGTCGATCTC
C225022318	CTACGACTGC
